{
  "artists" : {
    "href" : "https://api.spotify.com/v1/search?query=marshmello&type=artist&offset=0&limit=5",
    "items" : [ {
      "external_urls" : {
        "spotify" : "https://open.spotify.com/artist/64KEffDW9EtZ1y2vBYgq8T"
      },
      "followers" : {
        "href" : null,
        "total" : 33332782
      },
      "genres" : [ "brostep", "dance pop", "edm", "pop", "pop dance", "progressive electro house" ],
      "href" : "https://api.spotify.com/v1/artists/64KEffDW9EtZ1y2vBYgq8T",
      "id" : "64KEffDW9EtZ1y2vBYgq8T",
      "images" : [ {
        "height" : 640,
        "url" : "https://i.scdn.co/image/ab6761610000e5eba91af711541f8807ed7f0676",
        "width" : 640
      }, {
        "height" : 320,
        "url" : "https://i.scdn.co/image/ab67616100005174a91af711541f8807ed7f0676",
        "width" : 320
      }, {
        "height" : 160,
        "url" : "https://i.scdn.co/image/ab6761610000f178a91af711541f8807ed7f0676",
        "width" : 160
      } ],
      "name" : "Marshmello",
      "popularity" : 86,
      "type" : "artist",
      "uri" : "spotify:artist:64KEffDW9EtZ1y2vBYgq8T"
    }, {
      "external_urls" : {
        "spotify" : "https://open.spotify.com/artist/2XpiUE1A2BeA8gz4EwhJYV"
      },
      "followers" : {
        "href" : null,
        "total" : 1671
      },
      "genres" : [ "stomp and whittle" ],
      "href" : "https://api.spotify.com/v1/artists/2XpiUE1A2BeA8gz4EwhJYV",
      "id" : "2XpiUE1A2BeA8gz4EwhJYV",
      "images" : [ {
        "height" : 640,
        "url" : "https://i.scdn.co/image/ab6761610000e5eb5f919d9ea191fb708d839518",
        "width" : 640
      }, {
        "height" : 320,
        "url" : "https://i.scdn.co/image/ab676161000051745f919d9ea191fb708d839518",
        "width" : 320
      }, {
        "height" : 160,
        "url" : "https://i.scdn.co/image/ab6761610000f1785f919d9ea191fb708d839518",
        "width" : 160
      } ],
      "name" : "Marshmellow Overcoat",
      "popularity" : 11,
      "type" : "artist",
      "uri" : "spotify:artist:2XpiUE1A2BeA8gz4EwhJYV"
    }, {
      "external_urls" : {
        "spotify" : "https://open.spotify.com/artist/4z3cxEVECuwZpPIx2QYn7V"
      },
      "followers" : {
        "href" : null,
        "total" : 40007
      },
      "genres" : [ ],
      "href" : "https://api.spotify.com/v1/artists/4z3cxEVECuwZpPIx2QYn7V",
      "id" : "4z3cxEVECuwZpPIx2QYn7V",
      "images" : [ {
        "height" : 640,
        "url" : "https://i.scdn.co/image/ab67616d0000b273646b4c066be820d6f6fde890",
        "width" : 640
      }, {
        "height" : 300,
        "url" : "https://i.scdn.co/image/ab67616d00001e02646b4c066be820d6f6fde890",
        "width" : 300
      }, {
        "height" : 64,
        "url" : "https://i.scdn.co/image/ab67616d00004851646b4c066be820d6f6fde890",
        "width" : 64
      } ],
      "name" : "Far East Movement & Marshmello",
      "popularity" : 26,
      "type" : "artist",
      "uri" : "spotify:artist:4z3cxEVECuwZpPIx2QYn7V"
    }, {
      "external_urls" : {
        "spotify" : "https://open.spotify.com/artist/6fSNDuge2fLINdnCCbpZx6"
      },
      "followers" : {
        "href" : null,
        "total" : 46960
      },
      "genres" : [ "canadian hip hop", "indie pop rap" ],
      "href" : "https://api.spotify.com/v1/artists/6fSNDuge2fLINdnCCbpZx6",
      "id" : "6fSNDuge2fLINdnCCbpZx6",
      "images" : [ {
        "height" : 640,
        "url" : "https://i.scdn.co/image/ab6761610000e5eb224758098232a2d307b12c9e",
        "width" : 640
      }, {
        "height" : 320,
        "url" : "https://i.scdn.co/image/ab67616100005174224758098232a2d307b12c9e",
        "width" : 320
      }, {
        "height" : 160,
        "url" : "https://i.scdn.co/image/ab6761610000f178224758098232a2d307b12c9e",
        "width" : 160
      } ],
      "name" : "Omar LinX",
      "popularity" : 54,
      "type" : "artist",
      "uri" : "spotify:artist:6fSNDuge2fLINdnCCbpZx6"
    }, {
      "external_urls" : {
        "spotify" : "https://open.spotify.com/artist/5cSqurlu3QVXd1s0MznbQE"
      },
      "followers" : {
        "href" : null,
        "total" : 34
      },
      "genres" : [ ],
      "href" : "https://api.spotify.com/v1/artists/5cSqurlu3QVXd1s0MznbQE",
      "id" : "5cSqurlu3QVXd1s0MznbQE",
      "images" : [ {
        "height" : 640,
        "url" : "https://i.scdn.co/image/ab67616d0000b273d7ee1739ec1aca4ed844f5c1",
        "width" : 640
      }, {
        "height" : 300,
        "url" : "https://i.scdn.co/image/ab67616d00001e02d7ee1739ec1aca4ed844f5c1",
        "width" : 300
      }, {
        "height" : 64,
        "url" : "https://i.scdn.co/image/ab67616d00004851d7ee1739ec1aca4ed844f5c1",
        "width" : 64
      } ],
      "name" : "Marshmellow",
      "popularity" : 8,
      "type" : "artist",
      "uri" : "spotify:artist:5cSqurlu3QVXd1s0MznbQE"
    } ],
    "limit" : 5,
    "next" : "https://api.spotify.com/v1/search?query=marshmello&type=artist&offset=5&limit=5",
    "offset" : 0,
    "previous" : null,
    "total" : 27
  }
}